%YAML 1.1
%TAG !u! tag:unity3d.com,2011:
--- !u!114 &11400000
MonoBehaviour:
  m_ObjectHideFlags: 0
  m_CorrespondingSourceObject: {fileID: 0}
  m_PrefabInstance: {fileID: 0}
  m_PrefabAsset: {fileID: 0}
  m_GameObject: {fileID: 0}
  m_Enabled: 1
  m_EditorHideFlags: 0
  m_Script: {fileID: 11500000, guid: e07aecdb2146d814b8f61dbcdf409d43, type: 3}
  m_Name: EnemyBaseType1
  m_EditorClassIdentifier: 
  health: 3
  bulletType: {fileID: 6018044855755780795, guid: e88cdb504350c144c8aad8c02c86d203, type: 3}
  cooldownTimer: 2
  shotCooldownTimer: 7
  color: {r: 0.9245283, g: 0, b: 0.0164212, a: 1}
