%YAML 1.1
%TAG !u! tag:unity3d.com,2011:
--- !u!1 &246897212422457150
GameObject:
  m_ObjectHideFlags: 0
  m_CorrespondingSourceObject: {fileID: 0}
  m_PrefabInstance: {fileID: 0}
  m_PrefabAsset: {fileID: 0}
  serializedVersion: 6
  m_Component:
  - component: {fileID: 246897212422457145}
  - component: {fileID: 246897212422457144}
  m_Layer: 0
  m_Name: SpawnHeal
  m_TagString: Untagged
  m_Icon: {fileID: 0}
  m_NavMeshLayer: 0
  m_StaticEditorFlags: 0
  m_IsActive: 1
--- !u!4 &246897212422457145
Transform:
  m_ObjectHideFlags: 0
  m_CorrespondingSourceObject: {fileID: 0}
  m_PrefabInstance: {fileID: 0}
  m_PrefabAsset: {fileID: 0}
  m_GameObject: {fileID: 246897212422457150}
  m_LocalRotation: {x: 0, y: 0, z: 0, w: 1}
  m_LocalPosition: {x: -0.8656188, y: 4.1637845, z: 0.2129701}
  m_LocalScale: {x: 1, y: 1, z: 1}
  m_ConstrainProportionsScale: 0
  m_Children: []
  m_Father: {fileID: 0}
  m_RootOrder: 0
  m_LocalEulerAnglesHint: {x: 0, y: 0, z: 0}
--- !u!114 &246897212422457144
MonoBehaviour:
  m_ObjectHideFlags: 0
  m_CorrespondingSourceObject: {fileID: 0}
  m_PrefabInstance: {fileID: 0}
  m_PrefabAsset: {fileID: 0}
  m_GameObject: {fileID: 246897212422457150}
  m_Enabled: 1
  m_EditorHideFlags: 0
  m_Script: {fileID: 11500000, guid: a1583d44b9684544da534cb2b92784b7, type: 3}
  m_Name: 
  m_EditorClassIdentifier: 
  partialHeal: {fileID: 8138874163374269754, guid: 234792a4e1b49ca43ac0643c3295ce33, type: 3}
  healing: {fileID: 2090195062377891736, guid: ae65ff1cdc6a8434c8ce4115fd9f6947, type: 3}
  center: {x: 0, y: 3.95}
  size: {x: 31.78, y: 9.85}
  spawnTime: 10
